{
  "entries": {
    "brew": {
      "antidote": {
        "version": "1.6.5",
        "bottle": {
          "rebuild": 0,
          "root_url": "https://ghcr.io/v2/homebrew/core",
          "files": {
            "all": {
              "cellar": ":any_skip_relocation",
              "url": "https://ghcr.io/v2/homebrew/core/antidote/blobs/sha256:abd953c165b203edbdfd0a6d7eacbe65b06e4921d4d217662e5076bf1e3ca4a0",
              "sha256": "abd953c165b203edbdfd0a6d7eacbe65b06e4921d4d217662e5076bf1e3ca4a0"
            }
          }
        }
      },
      "asciinema": {
        "version": "2.2.0",
        "bottle": {
          "rebuild": 1,
          "root_url": "https://ghcr.io/v2/homebrew/core",
          "files": {
            "arm64_ventura": {
              "cellar": ":any_skip_relocation",
              "url": "https://ghcr.io/v2/homebrew/core/asciinema/blobs/sha256:5416d829853d3186c679d81514f2b7dce82a1e944ad36f7b25d2983a92ba1d42",
              "sha256": "5416d829853d3186c679d81514f2b7dce82a1e944ad36f7b25d2983a92ba1d42"
            },
            "arm64_monterey": {
              "cellar": ":any_skip_relocation",
              "url": "https://ghcr.io/v2/homebrew/core/asciinema/blobs/sha256:fe8c73c61de79a176c81b799b9abeb441a4851e8caaae33579a7c47562f14166",
              "sha256": "fe8c73c61de79a176c81b799b9abeb441a4851e8caaae33579a7c47562f14166"
            },
            "arm64_big_sur": {
              "cellar": ":any_skip_relocation",
              "url": "https://ghcr.io/v2/homebrew/core/asciinema/blobs/sha256:2e05d3040883a15f3a41530dcd6f0ce837290d4df30b49ff74f717ab2ddd1274",
              "sha256": "2e05d3040883a15f3a41530dcd6f0ce837290d4df30b49ff74f717ab2ddd1274"
            },
            "ventura": {
              "cellar": ":any_skip_relocation",
              "url": "https://ghcr.io/v2/homebrew/core/asciinema/blobs/sha256:20c7c37ceec4bc210ee8eba14cc21e52975d3c0f6e4ccffdb90fcb339d6d0938",
              "sha256": "20c7c37ceec4bc210ee8eba14cc21e52975d3c0f6e4ccffdb90fcb339d6d0938"
            },
            "monterey": {
              "cellar": ":any_skip_relocation",
              "url": "https://ghcr.io/v2/homebrew/core/asciinema/blobs/sha256:42b420d084a59d905e65dbd4f6bbe2f4b2acd2c61f8e7a1e88528e18bf998815",
              "sha256": "42b420d084a59d905e65dbd4f6bbe2f4b2acd2c61f8e7a1e88528e18bf998815"
            },
            "big_sur": {
              "cellar": ":any_skip_relocation",
              "url": "https://ghcr.io/v2/homebrew/core/asciinema/blobs/sha256:4030f7b1ef8bda0f339671002010706457b6e2f29f2d90bd6e18880ba140bbd4",
              "sha256": "4030f7b1ef8bda0f339671002010706457b6e2f29f2d90bd6e18880ba140bbd4"
            },
            "catalina": {
              "cellar": ":any_skip_relocation",
              "url": "https://ghcr.io/v2/homebrew/core/asciinema/blobs/sha256:13800c6a25e6cfd1565168754513b0632acdeb52044478afdbf9452bd919eb29",
              "sha256": "13800c6a25e6cfd1565168754513b0632acdeb52044478afdbf9452bd919eb29"
            },
            "x86_64_linux": {
              "cellar": ":any_skip_relocation",
              "url": "https://ghcr.io/v2/homebrew/core/asciinema/blobs/sha256:ec302dac1a74b6cffeb6ca21f3f79c12a63db6413afbf1b71d46c2ee29cc6d2f",
              "sha256": "ec302dac1a74b6cffeb6ca21f3f79c12a63db6413afbf1b71d46c2ee29cc6d2f"
            }
          }
        }
      },
      "cloc": {
        "version": "1.96",
        "bottle": {
          "rebuild": 0,
          "root_url": "https://ghcr.io/v2/homebrew/core",
          "files": {
            "arm64_ventura": {
              "cellar": ":any_skip_relocation",
              "url": "https://ghcr.io/v2/homebrew/core/cloc/blobs/sha256:f2ca644c64871c455ca23dbf4bb2a7484a6ae2efc24499137db2ac4f80637410",
              "sha256": "f2ca644c64871c455ca23dbf4bb2a7484a6ae2efc24499137db2ac4f80637410"
            },
            "arm64_monterey": {
              "cellar": ":any_skip_relocation",
              "url": "https://ghcr.io/v2/homebrew/core/cloc/blobs/sha256:f2ca644c64871c455ca23dbf4bb2a7484a6ae2efc24499137db2ac4f80637410",
              "sha256": "f2ca644c64871c455ca23dbf4bb2a7484a6ae2efc24499137db2ac4f80637410"
            },
            "arm64_big_sur": {
              "cellar": ":any_skip_relocation",
              "url": "https://ghcr.io/v2/homebrew/core/cloc/blobs/sha256:d0178f5ea1ba8f6af12d0f3d6922efcef4f36f3b183e0880aff0603f1c4ae047",
              "sha256": "d0178f5ea1ba8f6af12d0f3d6922efcef4f36f3b183e0880aff0603f1c4ae047"
            },
            "ventura": {
              "cellar": ":any_skip_relocation",
              "url": "https://ghcr.io/v2/homebrew/core/cloc/blobs/sha256:17612c45a4732801fe0a3611fd814126786546a23f9e5a11f19a60fe41f90dbc",
              "sha256": "17612c45a4732801fe0a3611fd814126786546a23f9e5a11f19a60fe41f90dbc"
            },
            "monterey": {
              "cellar": ":any_skip_relocation",
              "url": "https://ghcr.io/v2/homebrew/core/cloc/blobs/sha256:17612c45a4732801fe0a3611fd814126786546a23f9e5a11f19a60fe41f90dbc",
              "sha256": "17612c45a4732801fe0a3611fd814126786546a23f9e5a11f19a60fe41f90dbc"
            },
            "big_sur": {
              "cellar": ":any_skip_relocation",
              "url": "https://ghcr.io/v2/homebrew/core/cloc/blobs/sha256:6ea7874b57b82a041dca9f18e527007ce44a14836468f4b649e3893618c00928",
              "sha256": "6ea7874b57b82a041dca9f18e527007ce44a14836468f4b649e3893618c00928"
            },
            "x86_64_linux": {
              "cellar": ":any_skip_relocation",
              "url": "https://ghcr.io/v2/homebrew/core/cloc/blobs/sha256:480db584414f9730082099f836d29a80a7443fa14809d1d01e86c714b50a9cc2",
              "sha256": "480db584414f9730082099f836d29a80a7443fa14809d1d01e86c714b50a9cc2"
            }
          }
        }
      },
      "curl": {
        "version": "7.87.0",
        "bottle": {
          "rebuild": 0,
          "root_url": "https://ghcr.io/v2/homebrew/core",
          "files": {
            "arm64_ventura": {
              "cellar": ":any",
              "url": "https://ghcr.io/v2/homebrew/core/curl/blobs/sha256:fe0cb294a13b62cdf031f9a33e5c41dc44726a5a6e7c473d615769b42f162aff",
              "sha256": "fe0cb294a13b62cdf031f9a33e5c41dc44726a5a6e7c473d615769b42f162aff"
            },
            "arm64_monterey": {
              "cellar": ":any",
              "url": "https://ghcr.io/v2/homebrew/core/curl/blobs/sha256:bb61fd89bf7b336f05192f505520dfddc6459e303fbd2685a690594a92d80240",
              "sha256": "bb61fd89bf7b336f05192f505520dfddc6459e303fbd2685a690594a92d80240"
            },
            "arm64_big_sur": {
              "cellar": ":any",
              "url": "https://ghcr.io/v2/homebrew/core/curl/blobs/sha256:47882084f55244d05faec7e1a526c4046ea712e467af105739456929cd52c5e0",
              "sha256": "47882084f55244d05faec7e1a526c4046ea712e467af105739456929cd52c5e0"
            },
            "ventura": {
              "cellar": ":any",
              "url": "https://ghcr.io/v2/homebrew/core/curl/blobs/sha256:024436c8f9289be56f65a023d989dbc9925832da7487bc2ea9e85c5edcf0ad46",
              "sha256": "024436c8f9289be56f65a023d989dbc9925832da7487bc2ea9e85c5edcf0ad46"
            },
            "monterey": {
              "cellar": ":any",
              "url": "https://ghcr.io/v2/homebrew/core/curl/blobs/sha256:2fd90860e86005f871b2c86d8ec1a9151a49bb79939b8dfbb9416141176575c9",
              "sha256": "2fd90860e86005f871b2c86d8ec1a9151a49bb79939b8dfbb9416141176575c9"
            },
            "big_sur": {
              "cellar": ":any",
              "url": "https://ghcr.io/v2/homebrew/core/curl/blobs/sha256:11e5f63a85e5f40e53bd4cb58419d61b3c716b822df932b2f5e70bbe9c2ead5d",
              "sha256": "11e5f63a85e5f40e53bd4cb58419d61b3c716b822df932b2f5e70bbe9c2ead5d"
            },
            "x86_64_linux": {
              "cellar": ":any_skip_relocation",
              "url": "https://ghcr.io/v2/homebrew/core/curl/blobs/sha256:6406ab3ded7afe973ce7464262c427d6ef97099fc7916309205401bdf6a828c2",
              "sha256": "6406ab3ded7afe973ce7464262c427d6ef97099fc7916309205401bdf6a828c2"
            }
          }
        }
      },
      "httpie": {
        "version": "3.2.1",
        "bottle": {
          "rebuild": 2,
          "root_url": "https://ghcr.io/v2/homebrew/core",
          "files": {
            "arm64_ventura": {
              "cellar": ":any_skip_relocation",
              "url": "https://ghcr.io/v2/homebrew/core/httpie/blobs/sha256:d20fde2e0abd50cc69df40164aae3a8ba0feb7ffc7138ea74f07fa3bf06b6583",
              "sha256": "d20fde2e0abd50cc69df40164aae3a8ba0feb7ffc7138ea74f07fa3bf06b6583"
            },
            "arm64_monterey": {
              "cellar": ":any_skip_relocation",
              "url": "https://ghcr.io/v2/homebrew/core/httpie/blobs/sha256:f484f1b4f058b715152491e81ad3a72318b0f43fe10532560a114d73b02f885a",
              "sha256": "f484f1b4f058b715152491e81ad3a72318b0f43fe10532560a114d73b02f885a"
            },
            "arm64_big_sur": {
              "cellar": ":any_skip_relocation",
              "url": "https://ghcr.io/v2/homebrew/core/httpie/blobs/sha256:6db8708b200e112506664720eed917f9e8ff6dec3b9577115fe7deffec40d68a",
              "sha256": "6db8708b200e112506664720eed917f9e8ff6dec3b9577115fe7deffec40d68a"
            },
            "ventura": {
              "cellar": ":any_skip_relocation",
              "url": "https://ghcr.io/v2/homebrew/core/httpie/blobs/sha256:83bf75aa2d4149c12a717462f0ad4aae9bb64bb9fac2cd8d3da7674a74faab04",
              "sha256": "83bf75aa2d4149c12a717462f0ad4aae9bb64bb9fac2cd8d3da7674a74faab04"
            },
            "monterey": {
              "cellar": ":any_skip_relocation",
              "url": "https://ghcr.io/v2/homebrew/core/httpie/blobs/sha256:2bf69380d76561198246a8b45327dd72ae56afed53a4ec2af6a5c05c43089a12",
              "sha256": "2bf69380d76561198246a8b45327dd72ae56afed53a4ec2af6a5c05c43089a12"
            },
            "big_sur": {
              "cellar": ":any_skip_relocation",
              "url": "https://ghcr.io/v2/homebrew/core/httpie/blobs/sha256:fd1ea3ef55a3df249f465c71fe07e2615cca6a503c6d16e2d9741485362489c0",
              "sha256": "fd1ea3ef55a3df249f465c71fe07e2615cca6a503c6d16e2d9741485362489c0"
            },
            "catalina": {
              "cellar": ":any_skip_relocation",
              "url": "https://ghcr.io/v2/homebrew/core/httpie/blobs/sha256:b9fccdffbdb469053b38e9138f5b5ec95d43545c90d6611a4b1ff97aec940ce9",
              "sha256": "b9fccdffbdb469053b38e9138f5b5ec95d43545c90d6611a4b1ff97aec940ce9"
            },
            "x86_64_linux": {
              "cellar": ":any_skip_relocation",
              "url": "https://ghcr.io/v2/homebrew/core/httpie/blobs/sha256:a8b5057b8a4c1f589d89ebfd4fe70bc99deb1ba9939faa748f112ee0574c87f2",
              "sha256": "a8b5057b8a4c1f589d89ebfd4fe70bc99deb1ba9939faa748f112ee0574c87f2"
            }
          }
        }
      },
      "hub": {
        "version": "2.14.2",
        "bottle": {
          "rebuild": 0,
          "root_url": "https://ghcr.io/v2/homebrew/core",
          "files": {
            "arm64_ventura": {
              "cellar": ":any_skip_relocation",
              "url": "https://ghcr.io/v2/homebrew/core/hub/blobs/sha256:b1b4d7c179ca172a5d00781021defae38a452408eab7077e26ad4f317cfad9e6",
              "sha256": "b1b4d7c179ca172a5d00781021defae38a452408eab7077e26ad4f317cfad9e6"
            },
            "arm64_monterey": {
              "cellar": ":any_skip_relocation",
              "url": "https://ghcr.io/v2/homebrew/core/hub/blobs/sha256:00602733d9a4c8049e34cb20a7c96dbd51f98a60e1cb5fbc9aec72663324ce89",
              "sha256": "00602733d9a4c8049e34cb20a7c96dbd51f98a60e1cb5fbc9aec72663324ce89"
            },
            "arm64_big_sur": {
              "cellar": ":any_skip_relocation",
              "url": "https://ghcr.io/v2/homebrew/core/hub/blobs/sha256:19d761270350d4c4b6d5118d096dc7c012e7b58b43c0d81f9c6d8bded1888dd9",
              "sha256": "19d761270350d4c4b6d5118d096dc7c012e7b58b43c0d81f9c6d8bded1888dd9"
            },
            "ventura": {
              "cellar": ":any_skip_relocation",
              "url": "https://ghcr.io/v2/homebrew/core/hub/blobs/sha256:737b57476182bf2e937a570be65f991590d79d84b9d14299fe15c2711a715113",
              "sha256": "737b57476182bf2e937a570be65f991590d79d84b9d14299fe15c2711a715113"
            },
            "monterey": {
              "cellar": ":any_skip_relocation",
              "url": "https://ghcr.io/v2/homebrew/core/hub/blobs/sha256:d4c647211cc8a8e9aa9bedfaa4cb079a3a5fafea3f8378c7eaf5c50e2503cd0e",
              "sha256": "d4c647211cc8a8e9aa9bedfaa4cb079a3a5fafea3f8378c7eaf5c50e2503cd0e"
            },
            "big_sur": {
              "cellar": ":any_skip_relocation",
              "url": "https://ghcr.io/v2/homebrew/core/hub/blobs/sha256:7c480f3de5f449a741f88718194c129d597f0fe0db8b2130c1ccf4daa9a8dfca",
              "sha256": "7c480f3de5f449a741f88718194c129d597f0fe0db8b2130c1ccf4daa9a8dfca"
            },
            "catalina": {
              "cellar": ":any_skip_relocation",
              "url": "https://ghcr.io/v2/homebrew/core/hub/blobs/sha256:fdf05855839a9d7ec6e7bee6796e3cb5fc473500cffc002366cf98c09a805b69",
              "sha256": "fdf05855839a9d7ec6e7bee6796e3cb5fc473500cffc002366cf98c09a805b69"
            },
            "mojave": {
              "cellar": ":any_skip_relocation",
              "url": "https://ghcr.io/v2/homebrew/core/hub/blobs/sha256:bcbae9c683d76f3395665467ba0f0c00c60c12c84022f72faba4b8981724b563",
              "sha256": "bcbae9c683d76f3395665467ba0f0c00c60c12c84022f72faba4b8981724b563"
            },
            "high_sierra": {
              "cellar": ":any_skip_relocation",
              "url": "https://ghcr.io/v2/homebrew/core/hub/blobs/sha256:8800cda4532784bf764ea6116a06c81d8d90bb3d36d8ecf295e64f9dd647c4ad",
              "sha256": "8800cda4532784bf764ea6116a06c81d8d90bb3d36d8ecf295e64f9dd647c4ad"
            },
            "x86_64_linux": {
              "cellar": ":any_skip_relocation",
              "url": "https://ghcr.io/v2/homebrew/core/hub/blobs/sha256:213636e856404251ffd7897357ab91cc9519d3852e4b28cbb43575988d9bbc1b",
              "sha256": "213636e856404251ffd7897357ab91cc9519d3852e4b28cbb43575988d9bbc1b"
            }
          }
        }
      },
      "mas": {
        "version": "1.8.6",
        "bottle": {
          "rebuild": 0,
          "root_url": "https://ghcr.io/v2/homebrew/core",
          "files": {
            "arm64_ventura": {
              "cellar": ":any_skip_relocation",
              "url": "https://ghcr.io/v2/homebrew/core/mas/blobs/sha256:e49511dd1283813c4420aec9fc3b3167d18f9fdbb51d82b1e479b628d5312342",
              "sha256": "e49511dd1283813c4420aec9fc3b3167d18f9fdbb51d82b1e479b628d5312342"
            },
            "arm64_monterey": {
              "cellar": ":any_skip_relocation",
              "url": "https://ghcr.io/v2/homebrew/core/mas/blobs/sha256:379d46e2657be295321f1603dc1df28130ea0b5b264ceb192a9ba488d77c7a98",
              "sha256": "379d46e2657be295321f1603dc1df28130ea0b5b264ceb192a9ba488d77c7a98"
            },
            "arm64_big_sur": {
              "cellar": ":any_skip_relocation",
              "url": "https://ghcr.io/v2/homebrew/core/mas/blobs/sha256:918a1484de106940f7bebc936e1ded87d7b65652054b09204887ad0651937ec4",
              "sha256": "918a1484de106940f7bebc936e1ded87d7b65652054b09204887ad0651937ec4"
            },
            "ventura": {
              "cellar": ":any_skip_relocation",
              "url": "https://ghcr.io/v2/homebrew/core/mas/blobs/sha256:6ef7788e28c46cdc0f916812f49dfeb1fabf2240a8c36f33ce34bcfb9df1502f",
              "sha256": "6ef7788e28c46cdc0f916812f49dfeb1fabf2240a8c36f33ce34bcfb9df1502f"
            },
            "monterey": {
              "cellar": ":any_skip_relocation",
              "url": "https://ghcr.io/v2/homebrew/core/mas/blobs/sha256:6b313f2f66d028cb7782c108d6e502ce73ccb9c08fac3bece0b057fcce5c4689",
              "sha256": "6b313f2f66d028cb7782c108d6e502ce73ccb9c08fac3bece0b057fcce5c4689"
            },
            "big_sur": {
              "cellar": ":any_skip_relocation",
              "url": "https://ghcr.io/v2/homebrew/core/mas/blobs/sha256:50b50f51219143fcb69c730b52b74011a76104f66348ea727d0200f7b375ae25",
              "sha256": "50b50f51219143fcb69c730b52b74011a76104f66348ea727d0200f7b375ae25"
            },
            "catalina": {
              "cellar": ":any_skip_relocation",
              "url": "https://ghcr.io/v2/homebrew/core/mas/blobs/sha256:d241d3b9156b033f3d2c31684a44de726297e07fd9bd5e3ccc4c36e4f1c3baf3",
              "sha256": "d241d3b9156b033f3d2c31684a44de726297e07fd9bd5e3ccc4c36e4f1c3baf3"
            }
          }
        }
      },
      "speedtest-cli": {
        "version": "2.1.3_1",
        "bottle": {
          "rebuild": 1,
          "root_url": "https://ghcr.io/v2/homebrew/core",
          "files": {
            "all": {
              "cellar": ":any_skip_relocation",
              "url": "https://ghcr.io/v2/homebrew/core/speedtest-cli/blobs/sha256:dbe544f6837c7157450533ffc8a0e40166790b7b8c79f24e9aa759fd66888c23",
              "sha256": "dbe544f6837c7157450533ffc8a0e40166790b7b8c79f24e9aa759fd66888c23"
            }
          }
        }
      },
      "telnet": {
        "version": "64",
        "bottle": {
          "rebuild": 0,
          "root_url": "https://ghcr.io/v2/homebrew/core",
          "files": {
            "arm64_ventura": {
              "cellar": ":any_skip_relocation",
              "url": "https://ghcr.io/v2/homebrew/core/telnet/blobs/sha256:746c9c9d0361bd7e1df57aac06cf39f718b0dacb6152f0655661d9e38fab94dd",
              "sha256": "746c9c9d0361bd7e1df57aac06cf39f718b0dacb6152f0655661d9e38fab94dd"
            },
            "arm64_monterey": {
              "cellar": ":any_skip_relocation",
              "url": "https://ghcr.io/v2/homebrew/core/telnet/blobs/sha256:cf76f3b47cf35efd4d271adf52227e463298005ec9b1ac586b629d5ad94522cf",
              "sha256": "cf76f3b47cf35efd4d271adf52227e463298005ec9b1ac586b629d5ad94522cf"
            },
            "arm64_big_sur": {
              "cellar": ":any_skip_relocation",
              "url": "https://ghcr.io/v2/homebrew/core/telnet/blobs/sha256:ee7b09914ace1a19c919373b7199f90bbe1204137ac3412e4d6b129af8afef88",
              "sha256": "ee7b09914ace1a19c919373b7199f90bbe1204137ac3412e4d6b129af8afef88"
            },
            "ventura": {
              "cellar": ":any_skip_relocation",
              "url": "https://ghcr.io/v2/homebrew/core/telnet/blobs/sha256:8f200246578659501a830fa9e267b0b6837ba936da9974088024d33abf2bdb52",
              "sha256": "8f200246578659501a830fa9e267b0b6837ba936da9974088024d33abf2bdb52"
            },
            "monterey": {
              "cellar": ":any_skip_relocation",
              "url": "https://ghcr.io/v2/homebrew/core/telnet/blobs/sha256:e7d411ac808b074f661caf470c170e0c3e01746e818e5654400b7adbc418e941",
              "sha256": "e7d411ac808b074f661caf470c170e0c3e01746e818e5654400b7adbc418e941"
            },
            "big_sur": {
              "cellar": ":any_skip_relocation",
              "url": "https://ghcr.io/v2/homebrew/core/telnet/blobs/sha256:792bf380076d34dc7e3150ab900c6fabbaac605da31a0a7f3836119fb9ed53ea",
              "sha256": "792bf380076d34dc7e3150ab900c6fabbaac605da31a0a7f3836119fb9ed53ea"
            },
            "catalina": {
              "cellar": ":any_skip_relocation",
              "url": "https://ghcr.io/v2/homebrew/core/telnet/blobs/sha256:2ba6a3f8043930a9cf490e88d269c54e8b59697d0a0faa62eb18d389b6ce9c7b",
              "sha256": "2ba6a3f8043930a9cf490e88d269c54e8b59697d0a0faa62eb18d389b6ce9c7b"
            }
          }
        }
      },
      "terminal-notifier": {
        "version": "2.0.0",
        "bottle": {
          "rebuild": 0,
          "root_url": "https://ghcr.io/v2/homebrew/core",
          "files": {
            "arm64_ventura": {
              "cellar": ":any_skip_relocation",
              "url": "https://ghcr.io/v2/homebrew/core/terminal-notifier/blobs/sha256:20ebb413679d76521e4434cb4351560f35052985a11cbb1f85c12e45bef95919",
              "sha256": "20ebb413679d76521e4434cb4351560f35052985a11cbb1f85c12e45bef95919"
            },
            "arm64_monterey": {
              "cellar": ":any_skip_relocation",
              "url": "https://ghcr.io/v2/homebrew/core/terminal-notifier/blobs/sha256:c9862b6cf8d3b299ef67dcfb6e31d3040670bdfe58110d04797b117b3702de42",
              "sha256": "c9862b6cf8d3b299ef67dcfb6e31d3040670bdfe58110d04797b117b3702de42"
            },
            "arm64_big_sur": {
              "cellar": ":any_skip_relocation",
              "url": "https://ghcr.io/v2/homebrew/core/terminal-notifier/blobs/sha256:d1268e236f13f5bb4cd5fead9cf54cfb54ceefb98e34861bd39cf3c7e6ef34cf",
              "sha256": "d1268e236f13f5bb4cd5fead9cf54cfb54ceefb98e34861bd39cf3c7e6ef34cf"
            },
            "ventura": {
              "cellar": ":any_skip_relocation",
              "url": "https://ghcr.io/v2/homebrew/core/terminal-notifier/blobs/sha256:29c41b914cd8299dba529d1fc6029e4af981ee90010f8a8b11dc4ded8e097855",
              "sha256": "29c41b914cd8299dba529d1fc6029e4af981ee90010f8a8b11dc4ded8e097855"
            },
            "monterey": {
              "cellar": ":any_skip_relocation",
              "url": "https://ghcr.io/v2/homebrew/core/terminal-notifier/blobs/sha256:6513db788b33570b1b89d2b0215e3176d629814b3233c993e995ec9806ad32df",
              "sha256": "6513db788b33570b1b89d2b0215e3176d629814b3233c993e995ec9806ad32df"
            },
            "big_sur": {
              "cellar": ":any_skip_relocation",
              "url": "https://ghcr.io/v2/homebrew/core/terminal-notifier/blobs/sha256:91f14694ebce08887492aa75138753cd9ff74977868927b15b52559728280055",
              "sha256": "91f14694ebce08887492aa75138753cd9ff74977868927b15b52559728280055"
            },
            "catalina": {
              "cellar": ":any_skip_relocation",
              "url": "https://ghcr.io/v2/homebrew/core/terminal-notifier/blobs/sha256:78eff95b7436480521ee68a8581ff2df0c615adefccd279486f2491f1b1c0a4b",
              "sha256": "78eff95b7436480521ee68a8581ff2df0c615adefccd279486f2491f1b1c0a4b"
            },
            "mojave": {
              "cellar": ":any_skip_relocation",
              "url": "https://ghcr.io/v2/homebrew/core/terminal-notifier/blobs/sha256:9671c602326357b7397248bfb0cf062bc47f19add15b615e512f58545c387c31",
              "sha256": "9671c602326357b7397248bfb0cf062bc47f19add15b615e512f58545c387c31"
            },
            "high_sierra": {
              "cellar": ":any_skip_relocation",
              "url": "https://ghcr.io/v2/homebrew/core/terminal-notifier/blobs/sha256:f112656234f4100d23cc1a41b96f92a09974360a822c2ec0fb6f9970862c1a22",
              "sha256": "f112656234f4100d23cc1a41b96f92a09974360a822c2ec0fb6f9970862c1a22"
            },
            "sierra": {
              "cellar": ":any_skip_relocation",
              "url": "https://ghcr.io/v2/homebrew/core/terminal-notifier/blobs/sha256:210cd525fad70bbaef40f092bc3478b1519f68f73c034990230d8b1cc61a8a7c",
              "sha256": "210cd525fad70bbaef40f092bc3478b1519f68f73c034990230d8b1cc61a8a7c"
            },
            "el_capitan": {
              "cellar": ":any_skip_relocation",
              "url": "https://ghcr.io/v2/homebrew/core/terminal-notifier/blobs/sha256:75ce68fd95fb502e20ccb25be72f7db12112ac1a4bdf5a70c140cd174ecbacf5",
              "sha256": "75ce68fd95fb502e20ccb25be72f7db12112ac1a4bdf5a70c140cd174ecbacf5"
            }
          }
        }
      },
      "tree": {
        "version": "2.1.0",
        "bottle": {
          "rebuild": 0,
          "root_url": "https://ghcr.io/v2/homebrew/core",
          "files": {
            "arm64_ventura": {
              "cellar": ":any_skip_relocation",
              "url": "https://ghcr.io/v2/homebrew/core/tree/blobs/sha256:4488b659e08f179e364d7aab216a2b3ba5ca7b6fbdf6340b25d5cb82f9d144b9",
              "sha256": "4488b659e08f179e364d7aab216a2b3ba5ca7b6fbdf6340b25d5cb82f9d144b9"
            },
            "arm64_monterey": {
              "cellar": ":any_skip_relocation",
              "url": "https://ghcr.io/v2/homebrew/core/tree/blobs/sha256:a7216dc9c7045dbc750c4d60f327c4576a48cde385e2644797aff03204a27707",
              "sha256": "a7216dc9c7045dbc750c4d60f327c4576a48cde385e2644797aff03204a27707"
            },
            "arm64_big_sur": {
              "cellar": ":any_skip_relocation",
              "url": "https://ghcr.io/v2/homebrew/core/tree/blobs/sha256:7197e3488411d6b4c2cdbfce381b6ec1bc1aa5f808be85184e18d50bfcc51a59",
              "sha256": "7197e3488411d6b4c2cdbfce381b6ec1bc1aa5f808be85184e18d50bfcc51a59"
            },
            "ventura": {
              "cellar": ":any_skip_relocation",
              "url": "https://ghcr.io/v2/homebrew/core/tree/blobs/sha256:7c41f6adcaae20c33bc99b7692bd82ef00a4f6fc7a469b120bf392956ab5d96b",
              "sha256": "7c41f6adcaae20c33bc99b7692bd82ef00a4f6fc7a469b120bf392956ab5d96b"
            },
            "monterey": {
              "cellar": ":any_skip_relocation",
              "url": "https://ghcr.io/v2/homebrew/core/tree/blobs/sha256:870fa02168b6959d6191cb6e339cfe871a95f6094e7bdce7d03bf7635ec58e92",
              "sha256": "870fa02168b6959d6191cb6e339cfe871a95f6094e7bdce7d03bf7635ec58e92"
            },
            "big_sur": {
              "cellar": ":any_skip_relocation",
              "url": "https://ghcr.io/v2/homebrew/core/tree/blobs/sha256:1064bfd862c2c4a33923fac8aa97de469179eaf0a963709ccc9731f4d2a37d9c",
              "sha256": "1064bfd862c2c4a33923fac8aa97de469179eaf0a963709ccc9731f4d2a37d9c"
            },
            "x86_64_linux": {
              "cellar": ":any_skip_relocation",
              "url": "https://ghcr.io/v2/homebrew/core/tree/blobs/sha256:296287c122d9d2424de76e22498ca04050a08ca3ff595ed32c3ee9123c0b818f",
              "sha256": "296287c122d9d2424de76e22498ca04050a08ca3ff595ed32c3ee9123c0b818f"
            }
          }
        }
      },
      "vim": {
        "version": "9.0.1250",
        "bottle": {
          "rebuild": 0,
          "root_url": "https://ghcr.io/v2/homebrew/core",
          "files": {
            "arm64_ventura": {
              "cellar": "/opt/homebrew/Cellar",
              "url": "https://ghcr.io/v2/homebrew/core/vim/blobs/sha256:52f32fbe651a67e835de9da1195f1e25a87e74af1307b90dfd21221746e1b7c6",
              "sha256": "52f32fbe651a67e835de9da1195f1e25a87e74af1307b90dfd21221746e1b7c6"
            },
            "arm64_monterey": {
              "cellar": "/opt/homebrew/Cellar",
              "url": "https://ghcr.io/v2/homebrew/core/vim/blobs/sha256:ca77787b8c6faa6f644538c8795985bf1926f8248ee9a95faf0cbc017faca686",
              "sha256": "ca77787b8c6faa6f644538c8795985bf1926f8248ee9a95faf0cbc017faca686"
            },
            "arm64_big_sur": {
              "cellar": "/opt/homebrew/Cellar",
              "url": "https://ghcr.io/v2/homebrew/core/vim/blobs/sha256:0e88238cf27264ab7e72b799f78463ee7b78235a075bd4fc25e7ba9caafd0e1c",
              "sha256": "0e88238cf27264ab7e72b799f78463ee7b78235a075bd4fc25e7ba9caafd0e1c"
            },
            "ventura": {
              "cellar": "/usr/local/Cellar",
              "url": "https://ghcr.io/v2/homebrew/core/vim/blobs/sha256:302e13e711dd3385a60b07f5979fa9a932f9ccc2b86efcac7bfb8c99419390e9",
              "sha256": "302e13e711dd3385a60b07f5979fa9a932f9ccc2b86efcac7bfb8c99419390e9"
            },
            "monterey": {
              "cellar": "/usr/local/Cellar",
              "url": "https://ghcr.io/v2/homebrew/core/vim/blobs/sha256:f253a1f8e145cb9d5c41e2e051348c34635ee664ded8beeee0b5d457efa34e9b",
              "sha256": "f253a1f8e145cb9d5c41e2e051348c34635ee664ded8beeee0b5d457efa34e9b"
            },
            "big_sur": {
              "cellar": "/usr/local/Cellar",
              "url": "https://ghcr.io/v2/homebrew/core/vim/blobs/sha256:ac80b2dc5ba4c2aa1b06840d096021e57e7f9e22780cee7b9bf7a40d38120b88",
              "sha256": "ac80b2dc5ba4c2aa1b06840d096021e57e7f9e22780cee7b9bf7a40d38120b88"
            },
            "x86_64_linux": {
              "cellar": "/home/linuxbrew/.linuxbrew/Cellar",
              "url": "https://ghcr.io/v2/homebrew/core/vim/blobs/sha256:b2700962e1aa8f0dd6120f803f3af14ada95f59de707c99903a7c10078d3a2e6",
              "sha256": "b2700962e1aa8f0dd6120f803f3af14ada95f59de707c99903a7c10078d3a2e6"
            }
          }
        }
      },
      "watchman": {
        "version": "2023.01.23.00",
        "bottle": {
          "rebuild": 0,
          "root_url": "https://ghcr.io/v2/homebrew/core",
          "files": {
            "arm64_ventura": {
              "cellar": ":any",
              "url": "https://ghcr.io/v2/homebrew/core/watchman/blobs/sha256:a482600bd74410675324ece66a1ea5de711f2def7c9aeddd91dea3d1d9b64623",
              "sha256": "a482600bd74410675324ece66a1ea5de711f2def7c9aeddd91dea3d1d9b64623"
            },
            "arm64_monterey": {
              "cellar": ":any",
              "url": "https://ghcr.io/v2/homebrew/core/watchman/blobs/sha256:5dc2c1fdf578ddfafbfc023f979f4e9d936b314db483f1772ad746e3f18d92ff",
              "sha256": "5dc2c1fdf578ddfafbfc023f979f4e9d936b314db483f1772ad746e3f18d92ff"
            },
            "arm64_big_sur": {
              "cellar": ":any",
              "url": "https://ghcr.io/v2/homebrew/core/watchman/blobs/sha256:d125b79370a084f080843e324eb9f7634c579853001dd8ccd4253626a4d2eead",
              "sha256": "d125b79370a084f080843e324eb9f7634c579853001dd8ccd4253626a4d2eead"
            },
            "ventura": {
              "cellar": ":any",
              "url": "https://ghcr.io/v2/homebrew/core/watchman/blobs/sha256:20d65bd3af75442d731a777f97d119e854efbe1e051c91edbe14406366fb98b1",
              "sha256": "20d65bd3af75442d731a777f97d119e854efbe1e051c91edbe14406366fb98b1"
            },
            "monterey": {
              "cellar": ":any",
              "url": "https://ghcr.io/v2/homebrew/core/watchman/blobs/sha256:f6467a7cc27513822e72295c72626952b38fae067ec6579640390886adc5545d",
              "sha256": "f6467a7cc27513822e72295c72626952b38fae067ec6579640390886adc5545d"
            },
            "big_sur": {
              "cellar": ":any",
              "url": "https://ghcr.io/v2/homebrew/core/watchman/blobs/sha256:8d0943a5c474fbc9bbaa1ad71f3ab1d2496c5da93e5541462c67ea28c404a3b9",
              "sha256": "8d0943a5c474fbc9bbaa1ad71f3ab1d2496c5da93e5541462c67ea28c404a3b9"
            },
            "x86_64_linux": {
              "cellar": ":any_skip_relocation",
              "url": "https://ghcr.io/v2/homebrew/core/watchman/blobs/sha256:1257ab53b7496871103d0db51fc7dada80a0a71b6e610e105da17abf5c60527b",
              "sha256": "1257ab53b7496871103d0db51fc7dada80a0a71b6e610e105da17abf5c60527b"
            }
          }
        }
      },
      "wget": {
        "version": "1.21.3_1",
        "bottle": {
          "rebuild": 1,
          "root_url": "https://ghcr.io/v2/homebrew/core",
          "files": {
            "arm64_ventura": {
              "cellar": "/opt/homebrew/Cellar",
              "url": "https://ghcr.io/v2/homebrew/core/wget/blobs/sha256:7415a3b847237e0a981f2df42761578d6b6b285361c450c010219355bd1c0df2",
              "sha256": "7415a3b847237e0a981f2df42761578d6b6b285361c450c010219355bd1c0df2"
            },
            "arm64_monterey": {
              "cellar": "/opt/homebrew/Cellar",
              "url": "https://ghcr.io/v2/homebrew/core/wget/blobs/sha256:ed959d9bd75bfac18aa823bd62c8e5f4736174fd183aee9ebaa913d0810dea36",
              "sha256": "ed959d9bd75bfac18aa823bd62c8e5f4736174fd183aee9ebaa913d0810dea36"
            },
            "arm64_big_sur": {
              "cellar": "/opt/homebrew/Cellar",
              "url": "https://ghcr.io/v2/homebrew/core/wget/blobs/sha256:42233b960709325f6e4ec479eb1786379e1b3757b4b7641bdbbd8e6a058e1013",
              "sha256": "42233b960709325f6e4ec479eb1786379e1b3757b4b7641bdbbd8e6a058e1013"
            },
            "ventura": {
              "cellar": "/usr/local/Cellar",
              "url": "https://ghcr.io/v2/homebrew/core/wget/blobs/sha256:0915596ebf9426fc9aad9307a6813ba35ac860e9dfa755741a23e9d446ac3b93",
              "sha256": "0915596ebf9426fc9aad9307a6813ba35ac860e9dfa755741a23e9d446ac3b93"
            },
            "monterey": {
              "cellar": "/usr/local/Cellar",
              "url": "https://ghcr.io/v2/homebrew/core/wget/blobs/sha256:f97fc2639cd9d2d037c2bf1a94fa664ef2d81143ce8a1fb5b740ce2eb397889c",
              "sha256": "f97fc2639cd9d2d037c2bf1a94fa664ef2d81143ce8a1fb5b740ce2eb397889c"
            },
            "big_sur": {
              "cellar": "/usr/local/Cellar",
              "url": "https://ghcr.io/v2/homebrew/core/wget/blobs/sha256:f85c6720bdabd86db32dd54837f577b709bc5de98896622a19f698f8a14e604f",
              "sha256": "f85c6720bdabd86db32dd54837f577b709bc5de98896622a19f698f8a14e604f"
            },
            "x86_64_linux": {
              "cellar": "/home/linuxbrew/.linuxbrew/Cellar",
              "url": "https://ghcr.io/v2/homebrew/core/wget/blobs/sha256:738ec27b5b39877b8004096d9c3edd04ff814e18dd6f6afca89a2f5b4eeedcac",
              "sha256": "738ec27b5b39877b8004096d9c3edd04ff814e18dd6f6afca89a2f5b4eeedcac"
            }
          }
        }
      },
      "pyenv": {
        "version": "2.3.11",
        "bottle": {
          "rebuild": 1,
          "root_url": "https://ghcr.io/v2/homebrew/core",
          "files": {
            "arm64_ventura": {
              "cellar": ":any",
              "url": "https://ghcr.io/v2/homebrew/core/pyenv/blobs/sha256:9b79ec1167a26c7c6f8961b4102bdd37fd44fb7d1a526b36c099cb39d067b0fd",
              "sha256": "9b79ec1167a26c7c6f8961b4102bdd37fd44fb7d1a526b36c099cb39d067b0fd"
            },
            "arm64_monterey": {
              "cellar": ":any",
              "url": "https://ghcr.io/v2/homebrew/core/pyenv/blobs/sha256:a0099cef864d52d0af0099a0abd3a2972b032a93a1923535b744550dcafac9a1",
              "sha256": "a0099cef864d52d0af0099a0abd3a2972b032a93a1923535b744550dcafac9a1"
            },
            "arm64_big_sur": {
              "cellar": ":any",
              "url": "https://ghcr.io/v2/homebrew/core/pyenv/blobs/sha256:4a7a4aecaa279b1815070046dcc0f6604b0c935aeb8dbbe5a5c1655c5c467f02",
              "sha256": "4a7a4aecaa279b1815070046dcc0f6604b0c935aeb8dbbe5a5c1655c5c467f02"
            },
            "ventura": {
              "cellar": ":any",
              "url": "https://ghcr.io/v2/homebrew/core/pyenv/blobs/sha256:362d3060c9a309634047ec5537c31d1111ddeaae2b742c8f14224bde535096e3",
              "sha256": "362d3060c9a309634047ec5537c31d1111ddeaae2b742c8f14224bde535096e3"
            },
            "monterey": {
              "cellar": ":any",
              "url": "https://ghcr.io/v2/homebrew/core/pyenv/blobs/sha256:addc2ca142844c96693deebd0dadbb4778eb5063a5b8dcbe688e8fafbd22c6d7",
              "sha256": "addc2ca142844c96693deebd0dadbb4778eb5063a5b8dcbe688e8fafbd22c6d7"
            },
            "big_sur": {
              "cellar": ":any",
              "url": "https://ghcr.io/v2/homebrew/core/pyenv/blobs/sha256:f4e8f3369133cc2bf3a2c344fa90199fbb4d72db3920dec78aaea269b96b36d4",
              "sha256": "f4e8f3369133cc2bf3a2c344fa90199fbb4d72db3920dec78aaea269b96b36d4"
            },
            "x86_64_linux": {
              "cellar": ":any_skip_relocation",
              "url": "https://ghcr.io/v2/homebrew/core/pyenv/blobs/sha256:7b8952825eb1d5b3e34a50a7473232da9a7a9c8c89cb37d2cab4baa394857407",
              "sha256": "7b8952825eb1d5b3e34a50a7473232da9a7a9c8c89cb37d2cab4baa394857407"
            }
          }
        }
      },
      "pipx": {
        "version": "1.1.0",
        "bottle": {
          "rebuild": 1,
          "root_url": "https://ghcr.io/v2/homebrew/core",
          "files": {
            "arm64_ventura": {
              "cellar": ":any_skip_relocation",
              "url": "https://ghcr.io/v2/homebrew/core/pipx/blobs/sha256:336cdb8afe16eed64fbdcab33fe1d3adf6ea683ccd214154570ac6a03c3cec3f",
              "sha256": "336cdb8afe16eed64fbdcab33fe1d3adf6ea683ccd214154570ac6a03c3cec3f"
            },
            "arm64_monterey": {
              "cellar": ":any_skip_relocation",
              "url": "https://ghcr.io/v2/homebrew/core/pipx/blobs/sha256:20ff1598043d947aa679b8a87bc0125ac04d8599e4e6e389c9f0f436f6fbd0fe",
              "sha256": "20ff1598043d947aa679b8a87bc0125ac04d8599e4e6e389c9f0f436f6fbd0fe"
            },
            "arm64_big_sur": {
              "cellar": ":any_skip_relocation",
              "url": "https://ghcr.io/v2/homebrew/core/pipx/blobs/sha256:a4f9211b8b3de7400bb86828fb9be542ddaef75666e346f2f46cc16b58416013",
              "sha256": "a4f9211b8b3de7400bb86828fb9be542ddaef75666e346f2f46cc16b58416013"
            },
            "ventura": {
              "cellar": ":any_skip_relocation",
              "url": "https://ghcr.io/v2/homebrew/core/pipx/blobs/sha256:409a12592d278e000b95e1a047d69fffdc147d35ec63feb223ea65da4e2df2de",
              "sha256": "409a12592d278e000b95e1a047d69fffdc147d35ec63feb223ea65da4e2df2de"
            },
            "monterey": {
              "cellar": ":any_skip_relocation",
              "url": "https://ghcr.io/v2/homebrew/core/pipx/blobs/sha256:414563e8da0d2aa2084683eb7f303cacee4b3b1f43f72ef3992995cf4ee96a4a",
              "sha256": "414563e8da0d2aa2084683eb7f303cacee4b3b1f43f72ef3992995cf4ee96a4a"
            },
            "big_sur": {
              "cellar": ":any_skip_relocation",
              "url": "https://ghcr.io/v2/homebrew/core/pipx/blobs/sha256:d92b440ed9159e4a2930348dd25d1e523dee2c8ba12f56c3499a7b6cfae51c61",
              "sha256": "d92b440ed9159e4a2930348dd25d1e523dee2c8ba12f56c3499a7b6cfae51c61"
            },
            "catalina": {
              "cellar": ":any_skip_relocation",
              "url": "https://ghcr.io/v2/homebrew/core/pipx/blobs/sha256:90a008b483418a511f6ab9c84ea4d1b6ac8c6caa2be8c1a5a2e9f16d7fa0d83c",
              "sha256": "90a008b483418a511f6ab9c84ea4d1b6ac8c6caa2be8c1a5a2e9f16d7fa0d83c"
            },
            "x86_64_linux": {
              "cellar": ":any_skip_relocation",
              "url": "https://ghcr.io/v2/homebrew/core/pipx/blobs/sha256:d43fabbed1f3101bce7f698f5caf1cdff2e954e3531ff180b437f6a26979fbf5",
              "sha256": "d43fabbed1f3101bce7f698f5caf1cdff2e954e3531ff180b437f6a26979fbf5"
            }
          }
        }
      },
      "lsd": {
        "version": "0.23.1",
        "bottle": {
          "rebuild": 1,
          "root_url": "https://ghcr.io/v2/homebrew/core",
          "files": {
            "arm64_ventura": {
              "cellar": ":any_skip_relocation",
              "url": "https://ghcr.io/v2/homebrew/core/lsd/blobs/sha256:2eefb530b176b9a06c00660d21d0c451f7c85be4b921050b47cff041a8766fb1",
              "sha256": "2eefb530b176b9a06c00660d21d0c451f7c85be4b921050b47cff041a8766fb1"
            },
            "arm64_monterey": {
              "cellar": ":any_skip_relocation",
              "url": "https://ghcr.io/v2/homebrew/core/lsd/blobs/sha256:47a64747a179d32a3b25a60fd5983bb521f206f0a9e1ed822f74384026676be6",
              "sha256": "47a64747a179d32a3b25a60fd5983bb521f206f0a9e1ed822f74384026676be6"
            },
            "arm64_big_sur": {
              "cellar": ":any_skip_relocation",
              "url": "https://ghcr.io/v2/homebrew/core/lsd/blobs/sha256:2ece545c19380ba3c26bf5db30b25a9d5f77dc695d3a61887bf656267d7e7a72",
              "sha256": "2ece545c19380ba3c26bf5db30b25a9d5f77dc695d3a61887bf656267d7e7a72"
            },
            "ventura": {
              "cellar": ":any_skip_relocation",
              "url": "https://ghcr.io/v2/homebrew/core/lsd/blobs/sha256:38bde1557a174ab1b066f1265798fdc86e598fef2e54e238a01254428c185817",
              "sha256": "38bde1557a174ab1b066f1265798fdc86e598fef2e54e238a01254428c185817"
            },
            "monterey": {
              "cellar": ":any_skip_relocation",
              "url": "https://ghcr.io/v2/homebrew/core/lsd/blobs/sha256:5872d5bba0ad3f1a2b0587542e2d4ccfb48a11f3f49371e01127fe6cce1cc7a7",
              "sha256": "5872d5bba0ad3f1a2b0587542e2d4ccfb48a11f3f49371e01127fe6cce1cc7a7"
            },
            "big_sur": {
              "cellar": ":any_skip_relocation",
              "url": "https://ghcr.io/v2/homebrew/core/lsd/blobs/sha256:03d625c493b30d412310289ce07ca803a67cdb872335bc9f8f3150e98a5c88f2",
              "sha256": "03d625c493b30d412310289ce07ca803a67cdb872335bc9f8f3150e98a5c88f2"
            },
            "x86_64_linux": {
              "cellar": ":any_skip_relocation",
              "url": "https://ghcr.io/v2/homebrew/core/lsd/blobs/sha256:a848acf2b41f07b816dae92b3262697e88ef20fb910268c6c7c36f32b4c3fcf9",
              "sha256": "a848acf2b41f07b816dae92b3262697e88ef20fb910268c6c7c36f32b4c3fcf9"
            }
          }
        }
      },
      "bpytop": {
        "version": "1.0.68",
        "bottle": {
          "rebuild": 1,
          "root_url": "https://ghcr.io/v2/homebrew/core",
          "files": {
            "arm64_ventura": {
              "cellar": ":any_skip_relocation",
              "url": "https://ghcr.io/v2/homebrew/core/bpytop/blobs/sha256:becab23db91f8307110f48affbf8fbb7cd563687a3b2396cb8ebd6c3b495f22b",
              "sha256": "becab23db91f8307110f48affbf8fbb7cd563687a3b2396cb8ebd6c3b495f22b"
            },
            "arm64_monterey": {
              "cellar": ":any_skip_relocation",
              "url": "https://ghcr.io/v2/homebrew/core/bpytop/blobs/sha256:1e1e60fabfc1c12c865fce8effc365fcf76650655004d63099c3799396785034",
              "sha256": "1e1e60fabfc1c12c865fce8effc365fcf76650655004d63099c3799396785034"
            },
            "arm64_big_sur": {
              "cellar": ":any_skip_relocation",
              "url": "https://ghcr.io/v2/homebrew/core/bpytop/blobs/sha256:de2bb84abd2e704d144218659c3e9c188304b170e9dd6187b22138158182c15c",
              "sha256": "de2bb84abd2e704d144218659c3e9c188304b170e9dd6187b22138158182c15c"
            },
            "ventura": {
              "cellar": ":any_skip_relocation",
              "url": "https://ghcr.io/v2/homebrew/core/bpytop/blobs/sha256:df1e0d8d3777948aece75453634ddb2746c76a1795ad1fcc452cf4119604842f",
              "sha256": "df1e0d8d3777948aece75453634ddb2746c76a1795ad1fcc452cf4119604842f"
            },
            "monterey": {
              "cellar": ":any_skip_relocation",
              "url": "https://ghcr.io/v2/homebrew/core/bpytop/blobs/sha256:0b157751f5c2a3d8e7820356d2d49e29587d98ea93c82533605ca9429c4c1e36",
              "sha256": "0b157751f5c2a3d8e7820356d2d49e29587d98ea93c82533605ca9429c4c1e36"
            },
            "big_sur": {
              "cellar": ":any_skip_relocation",
              "url": "https://ghcr.io/v2/homebrew/core/bpytop/blobs/sha256:f14bd5dfed41695186fce259e9c974298da36cfbd47b9598af539c0fda697d9c",
              "sha256": "f14bd5dfed41695186fce259e9c974298da36cfbd47b9598af539c0fda697d9c"
            },
            "catalina": {
              "cellar": ":any_skip_relocation",
              "url": "https://ghcr.io/v2/homebrew/core/bpytop/blobs/sha256:7ec48aedfe22ed4f1eef9a79bf824f47c8dc31729ee66546c7edd2e985c0b6c3",
              "sha256": "7ec48aedfe22ed4f1eef9a79bf824f47c8dc31729ee66546c7edd2e985c0b6c3"
            },
            "x86_64_linux": {
              "cellar": ":any_skip_relocation",
              "url": "https://ghcr.io/v2/homebrew/core/bpytop/blobs/sha256:fdb97df09c1d785d498ff04c87f219d0b5cfebc5cde09cb0039f879198746cc7",
              "sha256": "fdb97df09c1d785d498ff04c87f219d0b5cfebc5cde09cb0039f879198746cc7"
            }
          }
        }
      },
      "hacker1024/hacker1024/coretemp": {
        "version": "1.1.1",
        "bottle": false
      },
      "autojump": {
        "version": "22.5.3_3",
        "bottle": {
          "rebuild": 2,
          "root_url": "https://ghcr.io/v2/homebrew/core",
          "files": {
            "all": {
              "cellar": ":any_skip_relocation",
              "url": "https://ghcr.io/v2/homebrew/core/autojump/blobs/sha256:4d351b7fec964e67bd52e43d457b573edaa772f345f06fb66e6d74c03a4bfa55",
              "sha256": "4d351b7fec964e67bd52e43d457b573edaa772f345f06fb66e6d74c03a4bfa55"
            }
          }
        }
      },
      "fasd": {
        "version": "1.0.1",
        "bottle": {
          "rebuild": 0,
          "root_url": "https://ghcr.io/v2/homebrew/core",
          "files": {
            "all": {
              "cellar": ":any_skip_relocation",
              "url": "https://ghcr.io/v2/homebrew/core/fasd/blobs/sha256:9241df0f32971ce5a84c977f6908b93114946843813d5375ba7b983a7a783188",
              "sha256": "9241df0f32971ce5a84c977f6908b93114946843813d5375ba7b983a7a783188"
            }
          }
        }
      },
      "thefuck": {
        "version": "3.32",
        "bottle": {
          "rebuild": 2,
          "root_url": "https://ghcr.io/v2/homebrew/core",
          "files": {
            "arm64_ventura": {
              "cellar": ":any_skip_relocation",
              "url": "https://ghcr.io/v2/homebrew/core/thefuck/blobs/sha256:c0de3ebd0766c538d124f74270a91730c8e3e083656e61f09b6e3edb837caf0b",
              "sha256": "c0de3ebd0766c538d124f74270a91730c8e3e083656e61f09b6e3edb837caf0b"
            },
            "arm64_monterey": {
              "cellar": ":any_skip_relocation",
              "url": "https://ghcr.io/v2/homebrew/core/thefuck/blobs/sha256:b3c20013e623b39c5bca1fd71e44b200f7e31a2d7f5a377bc92b4593f806aff9",
              "sha256": "b3c20013e623b39c5bca1fd71e44b200f7e31a2d7f5a377bc92b4593f806aff9"
            },
            "arm64_big_sur": {
              "cellar": ":any_skip_relocation",
              "url": "https://ghcr.io/v2/homebrew/core/thefuck/blobs/sha256:d94b1731b44013b526e005137ce28d06484966c41b99e20003d5d40fbbc753a1",
              "sha256": "d94b1731b44013b526e005137ce28d06484966c41b99e20003d5d40fbbc753a1"
            },
            "ventura": {
              "cellar": ":any_skip_relocation",
              "url": "https://ghcr.io/v2/homebrew/core/thefuck/blobs/sha256:27254159fefb93d553c8f2941396061950c946354350bbac1d98396fb5771ad7",
              "sha256": "27254159fefb93d553c8f2941396061950c946354350bbac1d98396fb5771ad7"
            },
            "monterey": {
              "cellar": ":any_skip_relocation",
              "url": "https://ghcr.io/v2/homebrew/core/thefuck/blobs/sha256:ac8a42c8a3f407106e49da365beaa4f03337e025907bcb69812d28cf1c66850e",
              "sha256": "ac8a42c8a3f407106e49da365beaa4f03337e025907bcb69812d28cf1c66850e"
            },
            "big_sur": {
              "cellar": ":any_skip_relocation",
              "url": "https://ghcr.io/v2/homebrew/core/thefuck/blobs/sha256:788c8f21aec08c8df7cf09ca2be2b5069657af6e9dd1476b7d3b675451549976",
              "sha256": "788c8f21aec08c8df7cf09ca2be2b5069657af6e9dd1476b7d3b675451549976"
            },
            "catalina": {
              "cellar": ":any_skip_relocation",
              "url": "https://ghcr.io/v2/homebrew/core/thefuck/blobs/sha256:125e506e6b470358180f6fe49cb45aa99617442a1649fb7a9db18c8aafbd0c89",
              "sha256": "125e506e6b470358180f6fe49cb45aa99617442a1649fb7a9db18c8aafbd0c89"
            },
            "x86_64_linux": {
              "cellar": ":any_skip_relocation",
              "url": "https://ghcr.io/v2/homebrew/core/thefuck/blobs/sha256:aa50d5f202ecb6c751b1f8da9c2e943992bfc182bb6dfaa8b4ffdb46514e0225",
              "sha256": "aa50d5f202ecb6c751b1f8da9c2e943992bfc182bb6dfaa8b4ffdb46514e0225"
            }
          }
        }
      },
      "fnm": {
        "version": "1.33.1",
        "bottle": {
          "rebuild": 0,
          "root_url": "https://ghcr.io/v2/homebrew/core",
          "files": {
            "arm64_ventura": {
              "cellar": ":any_skip_relocation",
              "url": "https://ghcr.io/v2/homebrew/core/fnm/blobs/sha256:b934b7bcace92f5522c5afbc265f4f98eb603520d0badf00d34a180b01f88375",
              "sha256": "b934b7bcace92f5522c5afbc265f4f98eb603520d0badf00d34a180b01f88375"
            },
            "arm64_monterey": {
              "cellar": ":any_skip_relocation",
              "url": "https://ghcr.io/v2/homebrew/core/fnm/blobs/sha256:09863938f0c2a807b934dfbee0faafb57d9e01c33b4cf0c9ce47e9d475ad7f6c",
              "sha256": "09863938f0c2a807b934dfbee0faafb57d9e01c33b4cf0c9ce47e9d475ad7f6c"
            },
            "arm64_big_sur": {
              "cellar": ":any_skip_relocation",
              "url": "https://ghcr.io/v2/homebrew/core/fnm/blobs/sha256:fdd4644c7f569e85ba12b8f2b20dd1fca764166e506fccaa77d89859a1a1efdd",
              "sha256": "fdd4644c7f569e85ba12b8f2b20dd1fca764166e506fccaa77d89859a1a1efdd"
            },
            "ventura": {
              "cellar": ":any_skip_relocation",
              "url": "https://ghcr.io/v2/homebrew/core/fnm/blobs/sha256:cf47b704db8c4230bb44f4b5b96637375f1c05d28a8d3a36b9c26ea5bf6eec67",
              "sha256": "cf47b704db8c4230bb44f4b5b96637375f1c05d28a8d3a36b9c26ea5bf6eec67"
            },
            "monterey": {
              "cellar": ":any_skip_relocation",
              "url": "https://ghcr.io/v2/homebrew/core/fnm/blobs/sha256:ee9e0eb2a4c9fd6de12a198da932552cd0d1e2a9711f6c49e416bd69e4f7eb20",
              "sha256": "ee9e0eb2a4c9fd6de12a198da932552cd0d1e2a9711f6c49e416bd69e4f7eb20"
            },
            "big_sur": {
              "cellar": ":any_skip_relocation",
              "url": "https://ghcr.io/v2/homebrew/core/fnm/blobs/sha256:f7a88221f93e75572a06523f2b464dd3df14cc4bedda3f3fe267825d38141ba0",
              "sha256": "f7a88221f93e75572a06523f2b464dd3df14cc4bedda3f3fe267825d38141ba0"
            },
            "x86_64_linux": {
              "cellar": ":any_skip_relocation",
              "url": "https://ghcr.io/v2/homebrew/core/fnm/blobs/sha256:216eadf9087a9c22b10b42274af93fb370e85cb159f894c7a1972ba4bcd74df9",
              "sha256": "216eadf9087a9c22b10b42274af93fb370e85cb159f894c7a1972ba4bcd74df9"
            }
          }
        }
      }
    }
  },
  "system": {
    "macos": {
      "ventura": {
        "HOMEBREW_VERSION": "3.6.20",
        "HOMEBREW_PREFIX": "/usr/local",
        "Homebrew/homebrew-core": "84f3ab6b1032a4ddab1d8a0096077339da2d920f",
        "CLT": "14.1.0.0.1.1666437224",
        "Xcode": "14.1",
        "macOS": "13.0.1"
      }
    }
  }
}
