{
  "entries": {
    "tap": {
      "homebrew/cask": {
        "revision": "da40d3188acf4a3e59ec62e35d25f43a423967c3"
      },
      "homebrew/cask-fonts": {
        "revision": "24779a6f4ab59594eca96cbe59de52dea7a2cefe"
      },
      "homebrew/cask-versions": {
        "revision": "893c6eec17f7755ea144a961664b74b110bced4f"
      }
    },
    "cask": {
      "iterm2": {
        "version": "3.4.19",
        "options": {
          "full_name": "iterm2"
        }
      },
      "kap": {
        "version": "3.6.0",
        "options": {
          "full_name": "kap"
        }
      },
      "fluid": {
        "version": "2.1.2,2120",
        "options": {
          "full_name": "fluid"
        }
      },
      "vanilla": {
        "version": "2.0.3,49",
        "options": {
          "full_name": "vanilla"
        }
      },
      "gfxcardstatus": {
        "version": "2.5,5482",
        "options": {
          "full_name": "gfxcardstatus"
        }
      },
      "coconutbattery": {
        "version": "3.9.10,DD1A0568",
        "options": {
          "full_name": "coconutbattery"
        }
      },
      "balenaetcher": {
        "version": "latest",
        "options": {
          "full_name": "balenaetcher"
        }
      },
      "font-jetbrains-mono": {
        "version": "2.304",
        "options": {
          "full_name": "font-jetbrains-mono"
        }
      },
      "font-hack": {
        "version": "3.003",
        "options": {
          "full_name": "font-hack"
        }
      },
      "google-chrome": {
        "version": "109.0.5414.119",
        "options": {
          "full_name": "google-chrome"
        }
      },
      "firefox": {
        "version": "109.0",
        "options": {
          "full_name": "firefox"
        }
      },
      "brave-browser": {
        "version": "1.47.186.0,147.186",
        "options": {
          "full_name": "brave-browser"
        }
      },
      "cakebrew": {
        "version": "1.3",
        "options": {
          "full_name": "cakebrew"
        }
      },
      "discord": {
        "version": "0.0.272",
        "options": {
          "full_name": "discord"
        }
      },
      "slack": {
        "version": "4.29.149",
        "options": {
          "full_name": "slack"
        }
      },
      "cheatsheet": {
        "version": "1.6.4",
        "options": {
          "full_name": "cheatsheet"
        }
      },
      "dropbox": {
        "version": "166.4.2920",
        "options": {
          "full_name": "dropbox"
        }
      },
      "steam": {
        "version": "4.0",
        "options": {
          "full_name": "steam"
        }
      },
      "transmission": {
        "version": "3.00",
        "options": {
          "full_name": "transmission"
        }
      },
      "vlc": {
        "version": "3.0.18",
        "options": {
          "full_name": "vlc"
        }
      },
      "spotify": {
        "version": "1.2.3.1115,d61a8f5c,384",
        "options": {
          "full_name": "spotify"
        }
      },
      "spotify-notifications": {
        "version": null,
        "options": {
          "full_name": "spotify-notifications"
        }
      },
      "teamviewer": {
        "version": "15.38.3",
        "options": {
          "full_name": "teamviewer"
        }
      },
      "beamer": {
        "version": "3.5,35001",
        "options": {
          "full_name": "beamer"
        }
      },
      "sequel-ace": {
        "version": "4.0.5,20046",
        "options": {
          "full_name": "sequel-ace"
        }
      },
      "hammerspoon": {
        "version": "0.9.97",
        "options": {
          "full_name": "hammerspoon"
        }
      },
      "sourcetree": {
        "version": "4.2.1,248",
        "options": {
          "full_name": "sourcetree"
        }
      },
      "raycast": {
        "version": "1.46.1",
        "options": {
          "full_name": "raycast"
        }
      },
      "docker": {
        "version": "4.16.2,95914",
        "options": {
          "full_name": "docker"
        }
      },
      "visual-studio-code": {
        "version": "1.74.3",
        "options": {
          "full_name": "visual-studio-code"
        }
      },
      "ngrok": {
        "version": "3.1.1,ewxEwpSWPaS,a",
        "options": {
          "full_name": "ngrok"
        }
      },
      "figma": {
        "version": "116.5.18",
        "options": {
          "full_name": "figma"
        }
      },
      "imageoptim": {
        "version": "1.8.8",
        "options": {
          "full_name": "imageoptim"
        }
      },
      "mactex": {
        "version": "2022.0321",
        "options": {
          "full_name": "mactex"
        }
      },
      "datagrip": {
        "version": "2022.3.3,223.8617.3",
        "options": {
          "full_name": "datagrip"
        }
      },
      "intellij-idea": {
        "version": "2022.3.2,223.8617.56",
        "options": {
          "full_name": "intellij-idea"
        }
      },
      "webstorm": {
        "version": "2022.3.1,223.8214.51",
        "options": {
          "full_name": "webstorm"
        }
      },
      "pycharm": {
        "version": "2022.3.2,223.8617.48",
        "options": {
          "full_name": "pycharm"
        }
      },
      "appcode": {
        "version": "2022.3.1,223.8214.66",
        "options": {
          "full_name": "appcode"
        }
      },
      "phpstorm": {
        "version": "2022.3.1,223.8214.64",
        "options": {
          "full_name": "phpstorm"
        }
      },
      "goland": {
        "version": "2022.3.1,223.8214.59",
        "options": {
          "full_name": "goland"
        }
      },
      "postman": {
        "version": "10.8.0",
        "options": {
          "full_name": "postman"
        }
      },
      "insomnia": {
        "version": "2022.7.5",
        "options": {
          "full_name": "insomnia"
        }
      },
      "qlcolorcode": {
        "version": "4.1.0",
        "options": {
          "full_name": "qlcolorcode"
        }
      },
      "qlstephen": {
        "version": "1.5.1",
        "options": {
          "full_name": "qlstephen"
        }
      },
      "qlmarkdown": {
        "version": "1.0.15",
        "options": {
          "full_name": "qlmarkdown"
        }
      },
      "quicklook-json": {
        "version": "2,1.0",
        "options": {
          "full_name": "quicklook-json"
        }
      },
      "qlimagesize": {
        "version": "2.6.1",
        "options": {
          "full_name": "qlimagesize"
        }
      },
      "suspicious-package": {
        "version": "4.3.1,999",
        "options": {
          "full_name": "suspicious-package"
        }
      },
      "apparency": {
        "version": "1.5,277",
        "options": {
          "full_name": "apparency"
        }
      },
      "quicklookase": {
        "version": "1.0",
        "options": {
          "full_name": "quicklookase"
        }
      },
      "qlvideo": {
        "version": "2.00",
        "options": {
          "full_name": "qlvideo"
        }
      }
    }
  },
  "system": {
    "macos": {
      "ventura": {
        "HOMEBREW_VERSION": "3.6.20",
        "HOMEBREW_PREFIX": "/usr/local",
        "Homebrew/homebrew-core": "84f3ab6b1032a4ddab1d8a0096077339da2d920f",
        "CLT": "14.1.0.0.1.1666437224",
        "Xcode": "14.1",
        "macOS": "13.0.1"
      }
    }
  }
}
